S NO,Name of the Project,Name in Certificates,Country,City,Location_lat,Location_lng,Area(sqft),Rating Level,Year,Type of Project
1,ITC Green Center,,India,Gurgaon,,,170000,Platinum,2004,Corporate Office
2,Wipro Technologies (SDC),.,India,Gurgaon,,,175000,Platinum,2005,Corporate Office
3,Grundfos Pumps India Pvt Ltd,,India,Chennai,13.08268,80.270721,70000,Gold,2005,Corporate Office
4,Technopolis,Technopolis Phoenix Software Limited  Kolkata,India,Kolkata,,,775000,Gold,2006,Commercial Office
5,..0,,India,Chennai,13.08268,80.270721,1800000,Gold,2007,Commercial Office
6,Hiranandani BG Building,,India,Mumbai,,,95000,Platinum,2007,Commercial Office
7,ABN Amro Bank - Central Enterprises,,India,Chennai,13.08268,80.270721,79979,Gold,2007,Office - Interior
8,Spectral Services Consultants Pvt Ltd,,India,Noida,,,15000,Platinum,2007,Corporate Office
9,ETL BPO Park,,India,Chennai,13.08268,80.270721,1200000,Gold,2006,Commercial Office
10,World Bank Building,,India,Chennai,13.08268,80.270721,136000,Silver,2007,Corporate Office
11,Wipro Technologies SDB1,,India,Kochi,,,100000,Gold,2007,Corporate Office
12,K Raheja Corp C 30 BKC,K. Raheja Corp Centre  C 30 BKC  Mumbai  Maharaashtra,India,Mumbai,,,120000,Gold,2008,Commercial Office
13,Microsoft Building 3,Microsoft India R&D Pvt. Ltd Building-3,India,Hyderabad,,,595000,Gold,2008,Corporate Office
14,RMZ Millenia Business Park,,India,Chennai,13.08268,80.270721,1717635,Gold,2008,Commercial Office
15,IMTMA's Banglore International Center,,India,Bangalore,12.95798,77.401207,1481040,Certified,2008,Convention Center
16,Rajiv Gandhi (Hyderabad) International Airport,,India,Hyderabad,,,1259378,Silver,2008,Aviation
17,Patni Knowledge Center,,India,Noida,,,460000,Platinum,2008,Corporate Office
18,Motorola Manufacturing Facility,,India,Chennai,13.08268,80.270721,269900,Silver,2008,Corporate Office
19,Kalpataru Camlin,,India,Mumbai,,,326937,Platinum,2009,Commercial Office
20,TCS Technopark,TCS Technopark  Chennai,India,Chennai,13.08268,80.270721,1922909,Gold,2009,Corporate Office
21,FLSmidth House,,India,Chennai,13.08268,80.270721,277703,Gold,2009,Corporate Office
22,Infinity Benchmark,Infinity Benchmark  Kolkata,India,Kolkata,,,560535,Platinum,2009,Commercial Office
23,Fast Track Building 1 & 2  Wipro Technologies,,India,Greater Noida,,,199325,Gold,2009,Corporate Office
24,Software Development Block 3,,India,Pune,,,443473,Gold,2009,Corporate Office
25,Yamuna - Corporate office KBL,Yamuna  Kirloskar Brothers Limited,India,Pune,,,129995,Platinum,2010,Corporate Office
26,ITC Royal Gardenia,,India,Bangalore,12.95798,77.401207,737036,Platinum,2010,Hotel
27,Xylem,,India,Bangalore,12.95798,77.401207,525000,Gold,2008,Commercial Office
28,"Wipro SEZ (EC) Tower ""S2""",,India,Bangalore,12.95798,77.401207,601300,Silver,2010,Corporate Office
29,Wipro SEZ  Gopannapally S1 & S2,,India,Hyderabad,,,149239,Gold,2009,Corporate Office
30,Mindspace Airoli  Building No 8,Mindspace Airoli  Building No 8,India,Mumbai,,,237498,Gold,2009,Commercial Office
31,Brandix  Seeduwa,Brandix Casualwear Limited Seeduwa  Srilanka,Sri Lanka,Colombo,6.93197,79.85775,127000,Platinum,2009,Industrial
32,Suzlon One Earth,Suzlon OneEarth  Pune,India,Pune,,,600000,Platinum,2010,Corporate Office
33,Suzlon One Earth,Suzlon OneEarth  Pune,India,Pune,,,600000,5 Star,2010,Corporate Office
34,Beary’s Global Research Triangle,,India,Bangalore,12.95798,77.401207,800000,Pre Certified Platinum,2010,Commercial Office
35,Pacific Controls,,United Arab Emirates,Dubai,,,96000,Platinum,2006,Corporate Office
36,Metito,,United Arab Emirates,Dubai,,,15000,Gold,2007,Corporate Office
37,VTA School Ahangama,Sri Lanka Tsunami Reconstruction Project  Ahangama,Sri Lanka,Sri Lanka,,,20000,Silver,2009,Institutional
38,VTA School Samanthurai,Sri Lanka Tsunami Reconstruction Project  Samanthurai,Sri Lanka,Sri Lanka,,,20000,Silver,2009,Institutional
39,Cyber Walk,Cyber Walk,India,Gurgaon,,,1800000,Pre Certified Gold,2009,Commercial Office
40,Survam Technology Park,,India,Gurgaon,,,2500000,Pre Certified Gold,2009,Commercial Office
41,Park Infinia,,India,Pune,,,392000,Pre Certified Platinum,2009,Residential
42,OMD,,United Arab Emirates,Dubai,,,55715,Silver,2009,Corporate Office
43,TCS-Triruvananthapuram,,India,Thiruvananthapuram,,,80000,Silver,2009,Corporate Office
44,TCS IT Park Bhubaneshwar,,India,Bhubaneshwar,20.27894,85.73168,125000,Platinum,2009,Corporate Office
45,LOGIX Cyber Park,LOGIX Cyber Park,India,Noida,,,900000,Silver,2009,Commercial Office
46,RMZ Ecospace,,India,Kolkata,,,,Pre Certified Platinum,2007,Commercial Office
47,UGDPL  Ambuja,,India,Kolkata,,,,Pre Certified Platinum,2007,Commercial Office
48,Green Boulevard,Green Boulevard,India,Noida,,,952000,Platinum,2009,Commercial Office
49,CKT Apparel,,Sri Lanka,Agalawatte,6.93197,79.85775,,Gold,2009,Corporate Office
50,WIPRO Technologies Ltd.,,India,Vizag,,,198432,Gold,2010,Corporate Office
51,Balaji Medical and Diagnostic Centre,,India,New Delhi,,,223593,Gold,2010,Health Care
52,ORCHID- ACC Ltd,Orchid Woods,India,Mumbai,,,11447,Gold,2010,Commercial Office
53,Deutsche Bank,,India,Mumbai,,,186000,Gold,2010,Corporate Office
54,Nirlon Phase1,,India,Mumbai,,,1500000,Gold,2010,Commercial Office
55,Dabur Corporate Office ,,India,Gurgaon,,,100000,Gold,2010,Commercial Office
56,Relinace Mudra,,India,Mumbai,,,100000,Gold,2010,Corporate Office
57,Express Avenue,Express Avenue,India,Chennai,13.08268,80.270721,1750000,Gold,2010,Retail
58,Delhi International Airport Terminal 3,,India,New Delhi,,,7010000,Gold,2011,Aviation
59,Star Hub for Air Inn Pvt. Ltd,,India,Mumbai,,,181628,Pre Certified Gold,2011,Commercial Office
60,Godrej Eternia,,India,Chandigarh,30.73335,76.77904,480000,Pre Certified Platinum,2011,Commercial Office
61,ITC Windsor,ITC WINDSOR,India,Bangalore,12.95798,77.401207,298756,Platinum,2011,Hotel
62,Infosys Technologies Ltd ,,India,Thiruvananthapuram,,,139068,Platinum,2011,Corporate Office
63,Great Lakes Institute of Management  ,,India,Chennai,13.08268,80.270721,201543,Platinum,2010,Institutional
64,Commerzone Building no.4,,India,Pune,,,478199,Gold,2010,Commercial Office
65,ITC Sonar,,India,Kolkata,,,504396,Platinum,2011,Hotel
66,CitiBank NA,,India,Mumbai,,,95000,Platinum,2011,Office - Interior
67,NKP Cooling Tower Cafe Nirlon,,India,Mumbai,,,8000,Gold,2011,Restaurant
68,Orient Craft Ltd.,Orients Craft Ltd  Bhiwadi Rajasthan,India,Chopanki Rajasthan,28.149,76.882,200000,Silver,2011,Industrial
69,ITC Kakatiya,,India,Hyderabad,,,260583,Platinum,2011,Hotel
70,CB Richard Ellis  Bandra Kurla Complex,,India,Mumbai,,,4500,Silver,2011,Office - Interior
71,Deutsche Bank - Branch Office,,India,Ludhiana,,,7500,Silver,2011,Office - Interior
72,Nirlon Knowledgepark Phase 2,,India,Mumbai,,,350000,Gold,2011,Commercial Office
73,Citigroup Global Markets centre private limited,,India,Mumbai,,,33000,Gold,2011,Office - Interior
74,Pacific Controls,,India,Mumbai,,,33000,Pre Certified Gold,2011,Office - Interior
75,Spire Edge - Block B  C  D,,India,Manesar,,,679171,Pre Certified Gold,2011,Commercial Office
76,Spire Edge - Signature Tower,,India,Manesar,,,,Pre Certified Platinum,2011,Commercial Office
77,TMCB 02 (Bombay Dying),,India,Mumbai,,,400000,Gold,2011,Commercial Office
78,Deutsche Bank  GMC,,India,Mumbai,,,75000,Platinum,2011,Office - Interior
79,Birla International School (BPS),,India,Jaipur,,,84167,Gold,2011,Institutional
80,Developement of IT Park,,India,Chennai,13.08268,80.270721,1800000,Certified,2011,Commercial Office
81,Mindspace Bldg no 14,,India,Mumbai,,,248000,Gold,2011,Commercial Office
82,WIPRO CDC 5,,India,,,,,Gold,2010,Corporate Office
83,Commercial Building at Kalina,,India,Mumbai,,,118604,Gold,2011,Commercial Office
84,TSI Waverock Phase 1,,India,Hyderabad,,,650000,Gold,2011,Commercial Office
85,Citicorp Services India Limited - Gr Floor,,India,Mumbai,,,33000,Gold,2011,Office - Interior
86,BTCI -2.2,,India,Pune,,,110000,Platinum,2011,Office - Interior
87,Bharti DIAL Asset 07 - Oak (Worldmark 3),Worlmark3  Aerocity New Delhi,India,New Delhi,,,504666,Pre Certified Platinum,2011,Commercial Office
88,EMI Transmission Ltd.,,India,Mumbai,,,6700,Gold,2011,Commercial Office
89,Bharti DIAL Asset 08 - Oak (Worldmark 2),Worlmark2  Aerocity New Delhi,India,New Delhi,,,525088,Pre Certified Platinum,2011,Commercial Office
90,Bharti DIAL Asset 11 - Aspen (Worldmark 1),,India,New Delhi,,,770125,Pre Certified Platinum,2011,Commercial Office
91,TCS Technopark Phase 2,,India,Chennai,13.08268,80.270721,1416575,Platinum,2011,IT Park
92,Goldman Sachs Sunriver,,India,Bangalore,12.95798,77.401207,161484,Gold,2011,Commercial Office
93,The Celebration Mall (TCM),,India,Jalandhar,,,,Pre Certified Silver,2011,Retail
94,ITC Green Center,,India,Gurgaon,,,170000,Platinum,2012,Corporate Office
95,Citicorp Services India Limited  - FXLM phase 1,,India,Chennai,13.08268,80.270721,11002,Gold,2012,Office - Interior
96,SDB1 Pocharam- Infosys Technologies Limited,,India,Hyderabad,,,250000,Platinum,2012,Corporate Office
97,Indiabulls Sky Forest,,India,Mumbai,,,787510,Pre Certified Platinum,2012,Residential
98,Indiabulls Sky Suites,,India,Mumbai,,,787510,Pre Certified Platinum,2012,Residential
99,RMX Joss,,India,Noida,,,58000,Platinum,2012,Industrial
100,IT Park Godrej,,India,Mumbai,,,1402709,Gold,2012,Commercial Office
101,SSD Builders Pvt.Ltd - Notan Heights,,India,Mumbai,,,34525,Silver,2012,Commercial Office
102,Indiabulls Sky Forest,,India,Mumbai,,,1770200,Pre Certified Platinum,2012,Residential
103,Indiabulls Sky Forest,,India,Mumbai,,,1770200,Pre Certified Platinum,2012,Residential
104,Deutsche Bank  GTCM Exp,,India,Bangalore,12.95798,77.401207,21330,Platinum,2012,Office - Interior
105,Orchid Woods,,India,Mumbai,,,696000,Gold,2012,Residential
106,Max Hospital - Shalimar Bagh,Max Super Speciality Hospital,India,New Delhi,,,279791,Gold,2012,Health Care
107,Max Super Specialty Hospital  Mohali,,India,Punjab,,,180163,Gold,2012,Health Care
108,The Park,,India,Hyderabad,,,535748,Gold,2011,Hotel
109,Max Super Specialty Hospital  Bathinda,,India,Punjab,,,186820,Gold,2012,Health Care
110,DB  Global Services Pvt Ltd Ph3B,Deutsche Bank Group 2nd  3rd & 4th Floor  Business  Bay  Pune,India,Jaipur,,,25000,Silver,2012,Office - Interior
111,ITC Grand Chola (Dakshin) Hotel,,India,Chennai,13.08268,80.270721,1700000,Platinum,2012,Hotel
112,Orchid Crown,,India,Mumbai,,,,Pre Certified Gold,2012,Residential
113,Parinee - Cresenzo,,India,Mumbai,,,400000,Gold,2012,Commercial Office
114,Deutsche Bank Ahmedabad Branch,,India,Ahmedabad,23.022505,72.571365,4000,Gold,2012,Office - Interior
115,Max Super Specialty Hospital  Dehradun,,India,Dehradun,,,215999,Gold,2012,Health Care
116,AIPL Business Club,,India,Gurgaon,,,,Pre Certified Gold,2012,Commercial Office
117,Local Shopping Center (Reliance Office),,India,New Delhi,,,159316,Gold,2012,Corporate Office
118,SRL Laboratories - Maharaj Jagat Singh Medical Relief Society,SRL Laboratory  Maharaj Jagat Singh Medical Relief  Society - Amritsar,India,Beas,31.5203,75.291,29500,Gold,2012,Laboratory
119,World Bank Satellite Office,,India,New Delhi,,,40000,Gold,2012,Office - Interior
120,Tapasya Corporate Heights,,India,Gurgaon,,,522000,Pre Certified Gold,2012,Commercial Office
121,Deutsche Bank  CIB Centre  Level 6  NKP,,India,Mumbai,,,22382,Platinum,2013,Office - Interior
122,Indiabulls Tower 2 & 3,,India,Mumbai,,,1042300,Gold,2013,Commercial Office
123,Star Hub for Air Inn Pvt. Ltd,,India,Mumbai,,,229464,Gold,2013,Commercial Office
124,Citicorp Services India Ltd -  FXLM phase 2,,India,Chennai,13.08268,80.270721,14007,Gold,2013,Office - Interior
125,Environmental Design Solutions,,India,New Delhi,,,2500,Platinum,2013,Office - Interior
126,ITC LRBD ,,India,Gurgaon,,,,Platinum,2013,Commercial Office
127,Citi Enclave Phase 1,,India,Pune,,,53000,Platinum,2013,Office - Interior
128,Urmi Estate Commercial Building @ Keshav,,India,Mumbai,,,1000000,Gold,2013,Commercial Office
129,Capitol Heights- TRIL,,India,Nagpur,,,255550,Pre Certified Gold,2013,Residential
130,Telstra Global Office  Time Square  Mumbai,,India,Mumbai,,,3968,Gold,2013,Office - Interior
131,Deutsche Bank Indus,,India,Mumbai,,,55585,Platinum,2013,Office - Interior
132,L' Oreal Training Academy,L' Oreal Training Academy,India,Mumbai,,,7000,Platinum,2013,Institutional
133,L'Oreal Plant at Chakan - AKPG,,India,Pune,,,2000000,Gold,2013,Industrial
134,ITC LRBD CI,ITC Master Facility  Manesar,India,Gurgaon,,,66801,Platinum,2013,Office - Interior
135,Thyagaraj Stadium,,India,New Delhi,,,506304,Gold,2013,Stadium
136,Jawaharlal Nehru Bhawan,,India,New Delhi,,,630952,Gold,2013,Corporate Office
137,DLF Horizon Center,,India,Gurgaon,,,863459,Pre Certified Platinum,2013,Commercial Office
138,Virtusa Hyderabad,,India,Hyderabad,,,268000,Gold,2013,Commercial Office
139,Sangath Skyz,,India,Ahmedabad,23.022505,72.571365,171837,Silver,2013,Residential
140,TCS Sahyadri Park Phase I,,India,Pune,,,1400000,Gold,2013,Corporate Office
141,TCS Sahyadri Park Phase II,,India,Pune,,,1000000,Gold,2013,Corporate Office
142,BTCI -2.3,,India,Pune,,,1100000,Platinum,2013,Office - Interior
143,Oriental Bank of Commerce  BKC (BOI),,India,Mumbai,,,16184,Pre Certified Gold,2013,Corporate Office
144,Star India Pvt Ltd,,India,Mumbai,,,261148,Platinum,2013,Office - Interior
145,Sikka Karmic greens,Sikka Karmic Noida,India,Noida,,,592015,Pre Certified Gold,2013,Residential
146,Ascendas OneHub - Dr. Fresh Sez  Phase 1,Ascendas OneHub  Gurgaon  Phase 1,India,Gurgaon,,,476332,Gold,2013,Commercial Office
147,Sahara City Homes Lucknow,Sahara City Homes Lucknow,India,Lucknow,,,6881773,Pre Certified Gold,2013,Residential
148,Sahara City Homes Indore,Sahara City Homes Indore,India,Indore,,,3315000,Pre Certified Gold,2013,Residential
149,Sahara City Homes Jaipur,Sahara City Homes Jaipur,India,Jaipur,,,4048784,Pre Certified Gold,2013,Residential
150,Sahara City Homes Nagpur,Sahara City Homes Nagpur,India,Nagpur,,,3400594,Pre Certified Gold,2013,Residential
151,Nirlon Knowledgepark Phase 3 - B6,,India,Mumbai,,,417148,Gold,2014,Commercial Office
152,Advant IT Park,Advant IT Park,India,Noida,,,660129,Gold,2014,Commercial Office
153,Wipro SDB-1 ,,India,Greater Noida,,,280608,Gold,2014,Corporate Office
154,Sikka Kaamna,Sikka Kaamna Greens,India,Noida,,,25605610,Pre Certified Gold,2014,Residential
155,Gandhi Research Foundation,Gandhi Research Foundation,India,Jalgaon,,,75624,5 Star,2014,Institutional
156,Citibank NA FIFC,,India,Mumbai,,,,Platinum,2014,Office - Interior
157,Citi Ranga,,India,Bangalore,12.95798,77.401207,31278,Gold,2014,Office - Interior
158,Sahara City Homes Coimbatore,Sahara City Home  Coimbatore,India,Coimbatore,11.01601,76.970306,4831172,Pre Certified Gold,2013,Residential
159,Deutsche Bank  Chennai PBC,,India,Chennai,13.08268,80.270721,15000,Gold,2014,Office - Interior
160,TCS Synergy Park - ODC 5 & 6  ODC-4,,India,Hyderabad,,,680000,Gold,2014,Corporate Office
161,Citi Enclave Phase 2,,India,Pune,,,30000,Platinum,2014,Office - Interior
162,Standard Chartered bank 2-3rd Floor,,India,Mumbai,,,45000,Gold,2014,Office - Interior
163,TCS Banyan Park Phase II and III,,India,Mumbai ,,,232340,Pre Certified Gold,2014,Corporate Office
164,Deutsche Bank Ekanto ,,India,Pune,,,140000,Platinum,2014,Office - Interior
165,ITC LTD - Packaging  and Printing Division,,India,Haridwar,,,577665,Gold,2014,Industrial
166,Citi NKP Ph 3,,India,Mumbai,,,75000,Gold,2014,Office - Interior
167,ITC Fortune Hotel,,India,Bangalore,12.95798,77.401207,82757,Platinum,2014,Hotel
168,DB House,,India,Mumbai,,,13145,Gold,2014,Office - Interior
169,ITC Green Centre,,India,Bangalore,12.95798,77.401207,1308116,Pre Certified Platinum,2014,Corporate Office
170,HCL Technology Hub,HCL Technology Hub,India,Manesar,,,649200,Gold,2014,Corporate Office
171,DLF Camellias,The Camellias  Gurgaon,India,Gurgaon,,,4120070,Pre Certified Platinum,2014,Residential
172,HCL EB,HCL Technologies  Plot No.3a Sector-126 Sez  Noida,India,Noida,,,608562,Silver,2014,Corporate Office
173,Citi Enclave Ph 3,,India,Pune,,,76500,Platinum,2014,Office - Interior
174,CSIL  Ramanujan IT City,,India,Chennai,13.08268,80.270721,70900,Gold,2015,Office - Interior
175,Star India Pvt. Ltd - Phase 3,Star India Pvt. Ltd - 6th - 7th Floor  Urmi Estate,India,Mumbai,,,35560,Platinum,2015,Office - Interior
176,Jaypee Residency Manor,JAYPEE RESIDENCY MANOR,India,Mussoorie,,,140631,Gold,2015,Hotel
177,Star India Pvt. Ltd - Phase 2,,India,Mumbai,,,73000,Platinum,2015,Office - Interior
178,Nirlon Knowledge Park  B4-B5,Nirlon Knowledge Park  Phase-IV,India,Mumbai,,,500000,Gold,2015,Commercial Office
179,IndusInd Bank,,India,Noida,,,1800,Gold,2015,Office - Interior
180,Century Bhavan,,India,Mumbai,,,574828,Platinum,2014,Commercial Office
181,Ronesans Tower,,Turkey,Istanbul  Turkey,,,750186,Platinum,2014,Commercial Office
182,Hilton Hotel,,Turkey,Istanbul  Turkey,,,88000,Gold,2015,Hotel
183,TD Bank-Greenpoint,,USA,USA,,,4000,Gold,2013,Bank
184,BIRLESIM ENG PRDCTN-ADMIN BUILDING,,Turkey,Istanbul  Turkey,,,52000,Gold,2012,Industrial
185,Method Research Office,,Turkey,Istanbul  Turkey,,,16000,Gold,2012,Corporate Office
186,Jaypee Vasant Continential,,India,Delhi,,,250000,Platinum,2015,Hotel
187,Deutsche Bank Ekanto ph 3,,India,Pune,,,99600,Platinum,2015,Office - Interior
188,ITC - AJC Bose Road Residential Project,AJC Bose Road Residential Project  Kolkata,India,Kolkata,,,120036,Platinum,2015,Residential
189,Commerzone Building no.5,,India,Pune,,,450000,Gold,2015,Commercial Office
190,ITC Personal Care Products Factory,ITC Limited-Personal Care Products Business,India,Manpura,,,296000,Gold,2015,Industrial
191,Local Shopping Center (Reliance Office),,India,New Delhi,,,1308000,Gold,2015,Residential
192,Circuit House  Pune ,,India,Pune ,,,1 00 00 ,5 Star,2015,Hotel
193,The Cloud Hotel,The Cloud Hotel  Ahmedabad,India,Ahmedabad,23.022505,72.571365,47700,Gold,2015,Hotel
194,IFFCO Sadan ,IFFCO Ltd. - Surinder Jhakhar Bhavan  Sector 32,India,Delhi,,,140000,Gold,2015,Corporate Office
195,Jaypee Palace Agra,Jaypee Palace Hotel & Convention Centre,India,Agra,27.167641,78.035873,510000,Gold,2015,Hotel
196,Bayer House,Bayer House,India,Vapi,,,27000,Gold,2015,Corporate Office
197,Iffco Ltd. -Surinder Jhakhar Bhavan,,India,Gurgaon,,,100000,Gold,2015,Corporate Office
198,Gods Grace (Swapnali Bhosale Group),God's Grace  Pune,India,Pune ,,,87500,Silver,2015,Residential
199,Vodafone India ltd,,India,Pune ,,,12500,Silver,2015,Office - Interior
200,Vodafone UP West,UPW Circle Office,India,New Delhi,,,40000,Gold,2014,Office - Interior
201,Vodafone Technology Centre,,India,Mumbai ,,,19000,Gold,2015,Office - Interior
202,Cairn India ,VEDANTA | CAIRN INDIA DLF ATRIA ,India,Gurgaon,,,204460,Platinum,2015,Office - Interior
203,Commerzone Building No 6,,India,Pune,,,450000,Gold,2015,Commercial Office
204,Mindspace Airoli  Building No 2,,India,Mumbai,,,237498,Gold,2015,Commercial Office
205,Mindspace Madhapur  Building No 14,,India,Hyderabad,,,375425,Gold,2015,Commercial Office
206,Whitefield Hotel,,India,Bangalore,12.95798,77.401207,277391,Gold,2015,Commercial Office
207,Commerzone Building No 7,,India,Pune,,,269108,Gold,2015,Commercial Office
208,Hindustan Mills 1 2 & 3,,India,Mumbai,,,606300,Gold,2015,Residential
209,Mindspace Madhapur  Building No 11,,India,Hyderabad,,,394300,Gold,2012,Commercial Office
210,Mindspace Airoli  Building No 4,,India,Mumbai,,,237498,Gold,2012,Commercial Office
211,Mindspace Madhapur  Building No 09,,India,Hyderabad,,,824142,Gold,2013,Commercial Office
212,Mecidiyekoy Office,,Turkey,Istanbul  Turkey,,,115000,Gold,2012,Corporate Office
213,Kalpataru Inspire (HP),,India,Mumbai,,,,Gold,2015,Commercial Office
214,Citi Enclave Phase 4,Citi Enclave Phase 4  Citi Corp Services India Private Ltd  Pune,India,Mumbai,,,60000,Platinum,2015,Office - Interior
215,TD Bank-Sunnyside,,USA,USA,,,4000,Gold,2013,Office - Interior
216,Sandhar Technologies Ltd.,SANDHAR TECHNOLOGIES LTD,India,Guargaon,,,19945,Gold,2015,Office - Interior
217,Vivanta by TAJ  Dwarka,Vivanta - TAJ  Dwarka,India,Dwarka New Delhi,,,775733,Silver,2015,Hotel
218,Pansut Infotech Tower,Pansut Infotech Tower,India,Gurgaon,,,,Pre Certified Platinum,2015,Commercial Office
219,Aranyaa,Piramal Aranyaa  Byculla,India,Mumbai,,,,Pre Certified Gold,2015,Residential
220,Citi NKP Phase 4  B4/B5,Citycorp Services B4  B5 Nirlon Knowledge Park  Mumbai,India,Mumbai,,,47000,Gold,2015,Office - Interior
221,Citi LittleWood 4th-5th Floor,Citycorp Services Neville Tower  Ramanujan IT City  Chennai,India,Chennai,13.08268,80.270721,72560,Gold,2015,Office - Interior
222,DBC B4-B5  NKP,DBC & DBOI B4  LEVEL 5 & 6  NKP  Mumbai,India,Mumbai,,,88000,Platinum,2016,Office - Interior
223,Jindal Center,,India,Raigarh,,,153700,Platinum,2016,Corporate Office
224,ITC Grand Bharat,ITC Grand Bharat  Mewat,India,Gurgaon,,,,Platinum,2016,Hotel
225,TCS Infopark SEZ  Kochi,TCS infoPark  Kochi,India,Kochi,,,164758,Gold,2016,Corporate Office
226,TCS  Sahyadri Park  Phase III,TCS Sahyadri Park  Pune,India,Pune ,,,959861,Gold,2016,Corporate Office
227,IBL House,,India,Mumbai,,,19685,Platinum,2016,Office - Interior
228,DB Ekanto 4,DEUTSCHE BANK GROUP  1ST FLOOR  BUSINESS BAY  Pune,India,Pune,,,33184,Platinum,2016,Office - Interior
229,ONGC Rajiv Gandhi Urja Bhawan,,India,Delhi,,,1122119,Platinum,2016,Corporate Office
230,V-trans Ltd ,,India,Mumbai,,,8604,Platinum,2016,Office - Interior
231,Citi Enclave 5A& 5B,,India,Pune,,,,Platinum,2016,Office - Interior
232,Citi Enclave 5A& 5B,,India,Pune,,,36000,Platinum,2016,Office - Interior
233,Citi Littlewood 2nd and 3rd Floor,,India,Chennai,13.08268,80.270721,75640,Gold,2016,Office - Interior
234,Harbour City,,Hongkong,Hongkong,,,,Certified,2016,Bank
235,City Waterway Point,,Singapore,Singapore,,,,Silver,2016,Bank
236,Tein Mu,,Taiwan,Taiwan,,,,Gold,2016,Bank
237,One Bay East,,Hongkong,Hongkong,,,,Silver,2016,Bank
238,Nei Hu,,Taiwan,Taiwan,,,,Silver,2016,Bank
239,Citibank Tower  One Bay East,,Hongkong,Hongkong,,,"3 27 000	",Platinum,2017,Office - Interior
240,UIDAI Manesar,,India,Manesar  Haryana,,,,Gold,2016,Office & Data Centre
241,UIDAI Bengaluru,,India,Bangalore,12.95798,77.401207,,Gold,2016,Office & Data Centre
242,Sikka Krrish Greens,Sikka Krrish Greens,India,Meerut,,,,Pre certified Gold,2016,Residential
243,Sikka Kimaya Greens,,India,Dehradun,,,,Pre certified Gold,2016,Residential
244,SIkka Karnam Greens,,India,Noida,,,,Pre certified Gold,2015,Residential
245,ITC Gardenia ,,India,Bangalore,12.95798,77.401207,499795,Platinum,2016,Hotel
246,ITC Windsor - Recertification,,India,Bangalore,12.95798,77.401207,298756,Platinum,2016,Hotel
247,ITC Kakatiya - Recertification,,India,Hyderabad,,,260583,Platinum,2016,Hotel
248,ITC Sonar - Recertification,,India,Kolkata,,,504396,Platinum,2016,Hotel
249,Oxygen Business Park- Ph 1,,India,Noida,,,1171674,Gold,2016,IT Park
250,IFFCO B.S. Nakai Bhawan,,India,Chandigadh,30.73335,76.77904,41565,Gold,2016,Corporate Office
251,IFFCO Nagar,,India,Gurgaon,,,348710,Platinum,2016,Residential
252,IDLC Finance Limited,,Bangladesh,Chittagong,28.63243,77.21879,6202,Gold,2016,Office - Interior
253,Evoke Luminary,,Tanzania,Dar-Es-Salaam,,,66106,Gold,2016,Commercial Office
254,Steelcase Worklife Centre,,India,Gurgaon,,,3646,Gold,2016,Commercial Office
255,American International School Chennai,American International School Chennai,India,Chennai,13.08268,80.270721,536810,Gold,2017,Institutional
256,ITC Green Centre - Recertification,ITC Green Centre,India,Gurgaon,,,101681,Platinum,2017,Corporate Office
257,Citi Enclave 5C and 5D,Citicorp Services India Pvt Ltd,India,Pune,,,37761,Platinum,2017,Office - Interior
258,Citi Logix Noida,Citicorp Services India Pvt Ltd  Logix Noida,India,Noida,,,30000,Gold,2017,Office - Interior
259,Deutsche Bank Noida,Deutsche Bank  Noida,India,Noida,,,4410,Gold,2017,Office - Interior
260,CPC Citi Gold,,Singapore,Singapore,,,9146,Silver,2017,Office - Interior
261,SNU Indoor Sports centre,Shiv Nadar University  Indoor Sports Centre  Dadri,India,Dadri  UP,28.59388,76.2741,,Gold,2017,Sports Centre
262,Nhava Sheva India Gateway Terminal  Navi Mumbai' ,Nhava Sheva India Gateway Terminal  Navi Mumbai' ,India,Navi Mumbai,,,22231,Platinum,2017,Office - Interior
263,TATA Capitol Heights  Nagpur  ,,India,Nagpur ,,,,Gold,2017,Residential
264,PepsiCo Office One,,India,Gurgaon,,,94364,Gold,2017,Office - Interior
265,IFFCO 29,,India,Gurgaon,,,209300,Gold,2017,Corporate Office
266,IFFCO Lucknow,,India,Lucknow,,,18000,Gold,2017,Corporate Office
267,IFFCO Ahmedabad,,India,Ahmedabad,23.022505,72.571365,6000,Gold,2017,Corporate Office
268,Pernod Ricard Hyd,,India,Hyderabad,,,,Gold,2017,Office - Interior
269,Pernod Ricard Kol,,India,Kolkata,,,8000,Gold,2017,Office - Interior
270,Shoeniverse ,,Bangladesh,Dhaka,,,70000,Gold,2017,Industrial
271,Mahmud Warehouse,,Bangladesh,Dhaka,,,118000,Gold,2017,Warehouse
272,EIL Campus,,India,Gurgaon,,,,5 star,2017,Corporate Office
273,Bharti DIAL Asset 07 - Oak (Worldmark 3),Worlmark3  Aerocity New Delhi,India,New Delhi,,,504666,Platinum,2016,Commercial Office
274,Bharti DIAL Asset 08 - Oak (Worldmark 2),Worlmark2  Aerocity New Delhi,India,New Delhi,,,525088,Platinum,2016,Commercial Office
275,Bharti DIAL Asset 11 - Aspen (Worldmark 1),,India,New Delhi,,,770125,Platinum,2016,Commercial Office
276,Jaquar Headquarter  Gurgaon,Jaquar Headquarter,India,Gurgaon,,,146590,Platinum,2017,Commercial Office
277,SNF Office  Noida,SNF Corporate Office,India,Noida,,,80392,Platinum,2016,Commercial Office
278,IT Building for PDS Multinatinal Fashions Ltd,,India,Gurugram,,,70611,Platinum,2017,Commercial Office
278,DLF Two Horizon Centre,DLF Two Horizon Centre,India,Gurugram,,,863460,Platinum,2017,Commercial Office
280,Citi NKP B2,,India,Mumbai,,,19043,Gold,2017,Office - Interior
281,CSIPL Littlewood 1st floor,,India,Chennai,13.08268,80.270721,32750,Gold,2017,Office - Interior
282,Libas Textiles Ltd.,Libas Textiles Ltd.,Bangladesh,Dhaka,,,53131,Gold,2017,Industrial
283,DLF Cyberpark,DLF Cyberpark,India,Gurgaon,,,,Pre Certified Gold,2017,Corporate Office
284,AIPL Business Club,,India,Gurgaon,,,,Pre Certified Gold,2017,Corporate Office
285,World Bank Country Office,,India,New Delhi,,,35892,Gold,2016,Office - Interior
286,TCS MIHAN   Nagpur  ( Phase A),TCS MIHAN   Nagpur  ( Phase A),India,Nagpur,,,498652,Gold,2016,Commercial Office
287,TCS BP Phase II,TCS Banyan park Phase II,India,Mumbai,,,90960,Gold,2016,Commercial Office
288,TCS Olympus   Thane ,TCS Olympus   Thane ,India,Thane ,,,,Platinum,2017,Office - Interior
289,TCS Adibhatala,,India,Hayderabad,,,,Gold,2016,Commercial Office
290,Citi Enclave 6 A and B ,,India,Pune,,,40000,Gold,2018,Commercial Office
291,DLF Camellias,0,India,Gurugram,,,,Pre Certified Silver,2018,Residential
292,Bay Creation,Bay Creation ,Bangladesh,Dhaka,,,,Gold,2018,Warehouse
293,American International School Chennai,,India,,,,,,,
294,Citibank Tower  Lot 10,,Indonesia,Jakarta,,,78698,Platinum,2018,Office - Interior
295,South Quarter ,,Indonesia,Jakarta,,,234405,Gold,2018,Office - Interior
296,Citi Plaza  Manila,Citiplaza,,Manila,,,438308,Platinum,2018,Office - Interior
297,TCS Magnum ,,,Chennai ,13.08268,80.270721,417553,Platinum,2018,
298,Citi Enclave Phase 6 C ,,,Pune,,,20000,Gold,2018,Commercial Office
299,Far East New Spinning factory  Habigonj,Far East Spinning Industries Ltd.-Spinning Unit-1,Bangladesh,Dhaka,,,124212,Gold,2018,Industrial
300,Pansut Infotech Tower,Novus Tower  Gurgaon,India,Gurgaon,,,231680,Platinum,2018,Commercial Office
301,Citibank Level 16,CitiPlaza Level 16,,Manila,,,26887,,2018,Office - Interior
302,DB Pune and DB 4th floor extension,DBOI Pune,India,Pune,,,142022,Gold,2018,Commercial Office
303,Citi Enclave 6C,Citi Enclave 6C,India,Pune,,,,Silver,2018,Commercial Office
